3 Practical Day four – Practical One
…
library(nycflights13)

##1. Flights dataset

flights_tibble <- as_tibble(flights)
flights_tibble

# A tibble: 336,776 × 19
    year month   day dep_time sched_dep_time dep_delay arr_time sched_arr_time
   <int> <int> <int>    <int>          <int>     <dbl>    <int>          <int>
 1  2013     1     1      517            515         2      830            819
 2  2013     1     1      533            529         4      850            830
 3  2013     1     1      542            540         2      923            850
 4  2013     1     1      544            545        -1     1004           1022
 5  2013     1     1      554            600        -6      812            837
 6  2013     1     1      554            558        -4      740            728
 7  2013     1     1      555            600        -5      913            854
 8  2013     1     1      557            600        -3      709            723
 9  2013     1     1      557            600        -3      838            846
10  2013     1     1      558            600        -2      753            745
# ℹ 336,766 more rows
# ℹ 11 more variables: arr_delay <dbl>, carrier <chr>, flight <int>,
#   tailnum <chr>, origin <chr>, dest <chr>, air_time <dbl>, distance <dbl>,
#   hour <dbl>, minute <dbl>, time_hour <dttm>
…
##airlines and flights data set

#Step 1:
routes_multiple_airlines <- flights |>
  group_by(origin, dest)|>
  filter(n_distinct(carrier) > 1) |>
  ungroup()

routes_multiple_airlines

# A tibble: 276,735 × 19
    year month   day dep_time sched_dep_time dep_delay arr_time sched_arr_time
   <int> <int> <int>    <int>          <int>     <dbl>    <int>          <int>
 1  2013     1     1      542            540         2      923            850
 2  2013     1     1      554            600        -6      812            837
 3  2013     1     1      554            558        -4      740            728
 4  2013     1     1      555            600        -5      913            854
 5  2013     1     1      557            600        -3      709            723
 6  2013     1     1      557            600        -3      838            846
 7  2013     1     1      558            600        -2      753            745
 8  2013     1     1      558            600        -2      853            856
 9  2013     1     1      558            600        -2      924            917
10  2013     1     1      558            600        -2      923            937
# ℹ 276,725 more rows
# ℹ 11 more variables: arr_delay <dbl>, carrier <chr>, flight <int>,
#   tailnum <chr>, origin <chr>, dest <chr>, air_time <dbl>, distance <dbl>,
#   hour <dbl>, minute <dbl>, time_hour <dttm>

#Step 2:
route_delays <- routes_multiple_airlines |>
  group_by(origin, dest, carrier) |>
  summarise(avg_arr_delay = mean(arr_delay, na.rm = TRUE), .groups = "drop")

route_delays

# A tibble: 343 × 4
   origin dest  carrier avg_arr_delay
   <chr>  <chr> <chr>           <dbl>
 1 EWR    ATL   9E              -6.25
 2 EWR    ATL   DL              10.0 
 3 EWR    ATL   EV              19.5 
 4 EWR    ATL   UA              10.5 
 5 EWR    AUS   UA               4.28
 6 EWR    AUS   WN             -11.2 
 7 EWR    BDL   EV               6.78
 8 EWR    BDL   UA              22.6 
 9 EWR    BNA   EV              17.7 
10 EWR    BNA   WN              -2.13
# ℹ 333 more rows
#Step 3:

route_performance <- route_delays |>
  group_by(origin, dest) |>
  summarise(
    worst_airline = carrier[which.max(avg_arr_delay)],
    worst_delay = max(avg_arr_delay),
    best_airline = carrier[which.min(avg_arr_delay)],
    best_delay = min(avg_arr_delay),
    .groups = "drop"
  )

route_performance

# A tibble: 128 × 6
   origin dest  worst_airline worst_delay best_airline best_delay
   <chr>  <chr> <chr>               <dbl> <chr>             <dbl>
 1 EWR    ATL   EV                  19.5  9E               -6.25 
 2 EWR    AUS   UA                   4.28 WN              -11.2  
 3 EWR    BDL   UA                  22.6  EV                6.78 
 4 EWR    BNA   EV                  17.7  WN               -2.13 
 5 EWR    BOS   B6                   6.87 EV               -4.01 
 6 EWR    BWI   EV                  20.1  WN                5.95 
 7 EWR    CHS   EV                  16.2  UA              -14    
 8 EWR    CLE   UA                   5.97 EV               -3.71 
 9 EWR    CLT   EV                  20.5  US                0.920
10 EWR    CVG   EV                  21.2  9E                1.40 
# ℹ 118 more rows
…
personal_details

# A tibble: 50 × 15
   id      age gender height weight blood_type disease_status cholesterol
   <chr> <int> <chr>   <dbl>  <dbl> <chr>      <chr>                <dbl>
 1 id_1     50 male     174.   69.4 O          diseased               228
 2 id_2     34 male     198.   62.3 A          healthy                223
 3 id_3     70 male     174.   55.6 O          healthy                213
 4 id_4     33 female   194.   69.5 O          healthy                198
 5 id_5     22 female    NA    78.6 B          healthy                166
 6 id_6     61 male     180.   60.8 AB         healthy                151
 7 id_7     69 female   170.   72.2 O          diseased               195
 8 id_8     73 male     157.   60.9 O          healthy                199
 9 id_9     62 male     197.   75.1 O          diseased               189
10 id_10    56 female   165.   67.7 AB         Healthy                196
# ℹ 40 more rows
# ℹ 7 more variables: glucose <dbl>, smoker <chr>, exercise <chr>,
#   income <int>, education <chr>, region <chr>, marital_status <chr>
…
